{
	"datatypes": [
		{
			"creator": {
				"id": 10000,
				"username": "admin",
				"portrait": "",
				"realname": "系统管理员",
				"realnamePinyin": "xi'tong'guan'li'yuan"
			},
			"group": {
				"id": 9999,
				"name": "系统业务分组",
				"namePinyin": "xi'tong'ye'wu'fen'zu",
				"description": "系统内置业务分组",
				"respoId": 10000,
				"projectId": 10000,
				"creatorId": 10000
			},
			"id": 9999,
			"tag": "系统类型",
			"tagPinyin": "xi'tong'lei'xing",
			"type": 1,
			"name": "File",
			"format": 6,
			"description": "文件类型",
			"groupId": 9999,
			"projectId": 10000,
			"progroupId": 10000,
			"creatorId": 10000,
			"createTime": 1473163531384,
			"params": [],
			"watchList": [],
			"isWatched": 0
		},
		{
			"creator": {
				"id": 10000,
				"username": "admin",
				"portrait": "",
				"realname": "系统管理员",
				"realnamePinyin": "xi'tong'guan'li'yuan"
			},
			"group": {
				"id": 9999,
				"name": "系统业务分组",
				"namePinyin": "xi'tong'ye'wu'fen'zu",
				"description": "系统内置业务分组",
				"respoId": 10000,
				"projectId": 10000,
				"creatorId": 10000
			},
			"id": 10000,
			"tag": "系统类型",
			"tagPinyin": "xi'tong'lei'xing",
			"type": 1,
			"name": "Variable",
			"format": 0,
			"description": "可变类型",
			"groupId": 9999,
			"projectId": 10000,
			"progroupId": 10000,
			"creatorId": 10000,
			"createTime": 1473163531384,
			"params": [],
			"watchList": [],
			"isWatched": 0
		},
		{
			"creator": {
				"id": 10000,
				"username": "admin",
				"portrait": "",
				"realname": "系统管理员",
				"realnamePinyin": "xi'tong'guan'li'yuan"
			},
			"group": {
				"id": 9999,
				"name": "系统业务分组",
				"namePinyin": "xi'tong'ye'wu'fen'zu",
				"description": "系统内置业务分组",
				"respoId": 10000,
				"projectId": 10000,
				"creatorId": 10000
			},
			"id": 10001,
			"tag": "系统类型",
			"tagPinyin": "xi'tong'lei'xing",
			"type": 1,
			"name": "String",
			"format": 3,
			"description": "字符串",
			"groupId": 9999,
			"projectId": 10000,
			"progroupId": 10000,
			"creatorId": 10000,
			"createTime": 1473163531384,
			"params": [],
			"watchList": [],
			"isWatched": 0
		},
		{
			"creator": {
				"id": 10000,
				"username": "admin",
				"portrait": "",
				"realname": "系统管理员",
				"realnamePinyin": "xi'tong'guan'li'yuan"
			},
			"group": {
				"id": 9999,
				"name": "系统业务分组",
				"namePinyin": "xi'tong'ye'wu'fen'zu",
				"description": "系统内置业务分组",
				"respoId": 10000,
				"projectId": 10000,
				"creatorId": 10000
			},
			"id": 10002,
			"tag": "系统类型",
			"tagPinyin": "xi'tong'lei'xing",
			"type": 1,
			"name": "Number",
			"format": 4,
			"description": "数值",
			"groupId": 9999,
			"projectId": 10000,
			"progroupId": 10000,
			"creatorId": 10000,
			"createTime": 1473163531384,
			"params": [],
			"watchList": [],
			"isWatched": 0
		},
		{
			"creator": {
				"id": 10000,
				"username": "admin",
				"portrait": "",
				"realname": "系统管理员",
				"realnamePinyin": "xi'tong'guan'li'yuan"
			},
			"group": {
				"id": 9999,
				"name": "系统业务分组",
				"namePinyin": "xi'tong'ye'wu'fen'zu",
				"description": "系统内置业务分组",
				"respoId": 10000,
				"projectId": 10000,
				"creatorId": 10000
			},
			"id": 10003,
			"tag": "系统类型",
			"tagPinyin": "xi'tong'lei'xing",
			"type": 1,
			"name": "Boolean",
			"format": 5,
			"description": "布尔",
			"groupId": 9999,
			"projectId": 10000,
			"progroupId": 10000,
			"creatorId": 10000,
			"createTime": 1473163531384,
			"params": [],
			"watchList": [],
			"isWatched": 0
		}
	],
	"cliargs": [],
	"groups": [
		{
			"respo": {
				"id": 20081,
				"username": "q986171791@163.com",
				"portrait": "",
				"realname": "",
				"realnamePinyin": ""
			},
			"creator": {
				"id": 20081,
				"username": "q986171791@163.com",
				"portrait": "",
				"realname": "",
				"realnamePinyin": ""
			},
			"id": 32932,
			"type": 1,
			"name": "默认分组",
			"namePinyin": "mo'ren'fen'zu",
			"description": "",
			"respoId": 20081,
			"projectId": 26886,
			"progroupId": 22955,
			"creatorId": 20081,
			"createTime": 1520755300345
		}
	],
	"constraints": [
		{
			"creator": {
				"id": 10000,
				"username": "admin",
				"portrait": "",
				"realname": "系统管理员",
				"realnamePinyin": "xi'tong'guan'li'yuan"
			},
			"group": {
				"id": 9999,
				"name": "系统业务分组",
				"namePinyin": "xi'tong'ye'wu'fen'zu",
				"description": "系统内置业务分组",
				"respoId": 10000,
				"projectId": 10000,
				"creatorId": 10000
			},
			"id": 10019,
			"tag": "系统预置",
			"tagPinyin": "",
			"type": 1,
			"name": "id",
			"apply": 0,
			"function": "",
			"description": "生成唯一标识",
			"groupId": 9999,
			"projectId": 10000,
			"progroupId": 10000,
			"creatorId": 10000,
			"createTime": 1476100880184
		},
		{
			"creator": {
				"id": 10000,
				"username": "admin",
				"portrait": "",
				"realname": "系统管理员",
				"realnamePinyin": "xi'tong'guan'li'yuan"
			},
			"group": {
				"id": 9999,
				"name": "系统业务分组",
				"namePinyin": "xi'tong'ye'wu'fen'zu",
				"description": "系统内置业务分组",
				"respoId": 10000,
				"projectId": 10000,
				"creatorId": 10000
			},
			"id": 10020,
			"tag": "系统预置",
			"tagPinyin": "",
			"type": 1,
			"name": "str",
			"apply": 0,
			"function": "",
			"description": "生成随机字符串",
			"groupId": 9999,
			"projectId": 10000,
			"progroupId": 10000,
			"creatorId": 10000,
			"createTime": 1476100880184
		},
		{
			"creator": {
				"id": 10000,
				"username": "admin",
				"portrait": "",
				"realname": "系统管理员",
				"realnamePinyin": "xi'tong'guan'li'yuan"
			},
			"group": {
				"id": 9999,
				"name": "系统业务分组",
				"namePinyin": "xi'tong'ye'wu'fen'zu",
				"description": "系统内置业务分组",
				"respoId": 10000,
				"projectId": 10000,
				"creatorId": 10000
			},
			"id": 10021,
			"tag": "系统预置",
			"tagPinyin": "",
			"type": 1,
			"name": "chinese",
			"apply": 0,
			"function": "",
			"description": "生成随机中文字符串",
			"groupId": 9999,
			"projectId": 10000,
			"progroupId": 10000,
			"creatorId": 10000,
			"createTime": 1476100880184
		},
		{
			"creator": {
				"id": 10000,
				"username": "admin",
				"portrait": "",
				"realname": "系统管理员",
				"realnamePinyin": "xi'tong'guan'li'yuan"
			},
			"group": {
				"id": 9999,
				"name": "系统业务分组",
				"namePinyin": "xi'tong'ye'wu'fen'zu",
				"description": "系统内置业务分组",
				"respoId": 10000,
				"projectId": 10000,
				"creatorId": 10000
			},
			"id": 10022,
			"tag": "系统预置",
			"tagPinyin": "",
			"type": 1,
			"name": "email",
			"apply": 0,
			"function": "",
			"description": "生成随机邮箱地址",
			"groupId": 9999,
			"projectId": 10000,
			"progroupId": 10000,
			"creatorId": 10000,
			"createTime": 1476100880184
		},
		{
			"creator": {
				"id": 10000,
				"username": "admin",
				"portrait": "",
				"realname": "系统管理员",
				"realnamePinyin": "xi'tong'guan'li'yuan"
			},
			"group": {
				"id": 9999,
				"name": "系统业务分组",
				"namePinyin": "xi'tong'ye'wu'fen'zu",
				"description": "系统内置业务分组",
				"respoId": 10000,
				"projectId": 10000,
				"creatorId": 10000
			},
			"id": 10023,
			"tag": "系统预置",
			"tagPinyin": "",
			"type": 1,
			"name": "url",
			"apply": 0,
			"function": "",
			"description": "生成随机URL地址",
			"groupId": 9999,
			"projectId": 10000,
			"progroupId": 10000,
			"creatorId": 10000,
			"createTime": 1476100880184
		},
		{
			"creator": {
				"id": 10000,
				"username": "admin",
				"portrait": "",
				"realname": "系统管理员",
				"realnamePinyin": "xi'tong'guan'li'yuan"
			},
			"group": {
				"id": 9999,
				"name": "系统业务分组",
				"namePinyin": "xi'tong'ye'wu'fen'zu",
				"description": "系统内置业务分组",
				"respoId": 10000,
				"projectId": 10000,
				"creatorId": 10000
			},
			"id": 10024,
			"tag": "系统预置",
			"tagPinyin": "",
			"type": 1,
			"name": "num",
			"apply": 0,
			"function": "",
			"description": "生成随机数字",
			"groupId": 9999,
			"projectId": 10000,
			"progroupId": 10000,
			"creatorId": 10000,
			"createTime": 1476100880184
		},
		{
			"creator": {
				"id": 10000,
				"username": "admin",
				"portrait": "",
				"realname": "系统管理员",
				"realnamePinyin": "xi'tong'guan'li'yuan"
			},
			"group": {
				"id": 9999,
				"name": "系统业务分组",
				"namePinyin": "xi'tong'ye'wu'fen'zu",
				"description": "系统内置业务分组",
				"respoId": 10000,
				"projectId": 10000,
				"creatorId": 10000
			},
			"id": 10025,
			"tag": "系统预置",
			"tagPinyin": "",
			"type": 1,
			"name": "bool",
			"apply": 0,
			"function": "",
			"description": "生成随机布尔值",
			"groupId": 9999,
			"projectId": 10000,
			"progroupId": 10000,
			"creatorId": 10000,
			"createTime": 1476100880184
		},
		{
			"creator": {
				"id": 10000,
				"username": "admin",
				"portrait": "",
				"realname": "系统管理员",
				"realnamePinyin": "xi'tong'guan'li'yuan"
			},
			"group": {
				"id": 9999,
				"name": "系统业务分组",
				"namePinyin": "xi'tong'ye'wu'fen'zu",
				"description": "系统内置业务分组",
				"respoId": 10000,
				"projectId": 10000,
				"creatorId": 10000
			},
			"id": 10026,
			"tag": "系统预置",
			"tagPinyin": "",
			"type": 1,
			"name": "var",
			"apply": 0,
			"function": "",
			"description": "生成随机类型的值",
			"groupId": 9999,
			"projectId": 10000,
			"progroupId": 10000,
			"creatorId": 10000,
			"createTime": 1476100880184
		},
		{
			"creator": {
				"id": 10000,
				"username": "admin",
				"portrait": "",
				"realname": "系统管理员",
				"realnamePinyin": "xi'tong'guan'li'yuan"
			},
			"group": {
				"id": 9999,
				"name": "系统业务分组",
				"namePinyin": "xi'tong'ye'wu'fen'zu",
				"description": "系统内置业务分组",
				"respoId": 10000,
				"projectId": 10000,
				"creatorId": 10000
			},
			"id": 10027,
			"tag": "系统预置",
			"tagPinyin": "",
			"type": 1,
			"name": "repeat",
			"apply": 0,
			"function": "",
			"description": "生成指定元素个数的数组",
			"groupId": 9999,
			"projectId": 10000,
			"progroupId": 10000,
			"creatorId": 10000,
			"createTime": 1476100880184
		},
		{
			"creator": {
				"id": 10000,
				"username": "admin",
				"portrait": "",
				"realname": "系统管理员",
				"realnamePinyin": "xi'tong'guan'li'yuan"
			},
			"group": {
				"id": 9999,
				"name": "系统业务分组",
				"namePinyin": "xi'tong'ye'wu'fen'zu",
				"description": "系统内置业务分组",
				"respoId": 10000,
				"projectId": 10000,
				"creatorId": 10000
			},
			"id": 10031,
			"tag": "系统预置",
			"tagPinyin": "",
			"type": 1,
			"name": "loop",
			"apply": 0,
			"function": "",
			"description": "生成指定层数的数据",
			"groupId": 9999,
			"projectId": 10000,
			"progroupId": 10000,
			"creatorId": 10000,
			"createTime": 1476879301415
		},
		{
			"creator": {
				"id": 10000,
				"username": "admin",
				"portrait": "",
				"realname": "系统管理员",
				"realnamePinyin": "xi'tong'guan'li'yuan"
			},
			"group": {
				"id": 9999,
				"name": "系统业务分组",
				"namePinyin": "xi'tong'ye'wu'fen'zu",
				"description": "系统内置业务分组",
				"respoId": 10000,
				"projectId": 10000,
				"creatorId": 10000
			},
			"id": 10304,
			"tag": "系统预置",
			"tagPinyin": "",
			"type": 1,
			"name": "null",
			"apply": 0,
			"function": null,
			"description": "生成null值",
			"groupId": 9999,
			"projectId": 10000,
			"progroupId": 10000,
			"creatorId": 10000,
			"createTime": 1509622957319
		}
	],
	"interfaces": [],
	"templates": [],
	"pages": [],
	"project": {
		"creator": {
			"id": 20081,
			"username": "q986171791@163.com",
			"portrait": "",
			"realname": "",
			"realnamePinyin": ""
		},
		"id": 26886,
		"type": 0,
		"logo": "",
		"name": "erp",
		"namePinyin": "erp",
		"description": "",
		"qbsId": 0,
		"progroupId": 22955,
		"creatorId": 20081,
		"createTime": 1520755300342,
		"toolKey": "34e5e3d88cd41ea038dc6d0acf299e4d",
		"toolSpecWeb": 14147,
		"toolSpecAos": 0,
		"toolSpecIos": 0,
		"toolSpecTest": 0,
		"hostId": 0,
		"authType": 0,
		"resParamRequired": 0,
		"members": {
			"observers": [],
			"developers": [],
			"testers": [],
			"auditors": [],
			"admins": [],
			"owner": [
				{
					"createTime": 1520755265064,
					"role": 10,
					"id": 20081,
					"username": "q986171791@163.com",
					"portrait": "",
					"realname": "",
					"realnamePinyin": "",
					"paopao": "",
					"email": "q986171791@163.com"
				}
			]
		}
	},
	"specs": [
		{
			"docs": [],
			"spec": {
				"id": 14147,
				"type": 0,
				"isShare": 0,
				"isLock": 0,
				"isSystem": 0,
				"name": "go",
				"namePinyin": "go",
				"language": 0,
				"description": "",
				"document": null,
				"creatorId": 20081,
				"createTime": 1520755686813,
				"argsConfig": 0,
				"helpersConfig": 0,
				"toolKey": "035b6ebdac9fab8b3c63f451ea9dce94",
				"engine": 0,
				"webRoot": 0,
				"viewRoot": 0,
				"viewExtension": "",
				"mockApiRoot": 0,
				"mockViewRoot": 0,
				"jarRoot": 0,
				"attributes": {
					"specId": 14147,
					"viewRoot": 0,
					"webRoot": 0,
					"mockApiRoot": 0,
					"mockViewRoot": 0,
					"jarRoot": 0,
					"engine": 0,
					"viewExtension": ""
				}
			},
			"varmaps": [],
			"jarConfig": []
		}
	]
}